Advanced Network Analysis
…
---
## Table 1 Replication Cont'd

2. Calculate total number of friends of friends of each person.
3. Calculate average number of friends of friends.

```
## # A tibble: 69 x 4
##    from_id  ideg tot_fdeg ave_deg
##    <chr>   <dbl>    <dbl>   <dbl>
##  1 1           5       16    3.2 
##  2 11          4       16    4   
##  3 12          3       13    4.33
##  4 13          4       15    3.75
##  5 14          2        8    4   
##  6 15          1        5    5   
##  7 16          3       10    3.33
##  8 17          2        3    1.5 
##  9 18          3       12    4   
## 10 19          5       17    3.4 
## # ... with 59 more rows
```
…
